{
    "read_files": [
        "SRR3371356_1.cor.p.fq.gz"
    ],
    "expected_format": "U",
    "compatible_fragment_ratio": 1.0,
    "num_compatible_fragments": 12066992,
    "num_assigned_fragments": 12066992,
    "num_frags_with_concordant_consistent_mappings": 12097227,
    "num_frags_with_inconsistent_or_orphan_mappings": 0,
    "strand_mapping_bias": 0.4958499166792522,
    "MSF": 0,
    "OSF": 0,
    "ISF": 0,
    "MSR": 0,
    "OSR": 0,
    "ISR": 0,
    "SF": 5998409,
    "SR": 6098818,
    "MU": 0,
    "OU": 0,
    "IU": 0,
    "U": 0
}