{
    "read_files": "/home/yangya/clingyun/data/paper1/arabidopsis_coolen_2016/SRR3371299_1.cor.p.fq",
    "expected_format": "U",
    "compatible_fragment_ratio": 1.0,
    "num_compatible_fragments": 19786662,
    "num_assigned_fragments": 19786662,
    "num_consistent_mappings": 48497636,
    "num_inconsistent_mappings": 0,
    "strand_mapping_bias": 0.5083895841850931,
    "MSF": 0,
    "OSF": 0,
    "ISF": 0,
    "MSR": 0,
    "OSR": 0,
    "ISR": 0,
    "SF": 24655693,
    "SR": 23841943,
    "MU": 0,
    "OU": 0,
    "IU": 0,
    "U": 0
}