[2018-04-02 19:30:46.730] [jointLog] [info] parsing read library format
[2018-04-02 19:30:46.730] [jointLog] [info] There is 1 library.
[2018-04-02 19:30:46.771] [jointLog] [info] Loading Quasi index
[2018-04-02 19:30:46.771] [jointLog] [info] Loading 32-bit quasi index
[2018-04-02 19:30:49.258] [jointLog] [info] done
[2018-04-02 19:30:49.258] [jointLog] [info] Index contained 63557 targets
[2018-04-02 19:31:26.468] [fileLog] [info] 
At end of round 0
==================
Observed 15676323 total fragments (15676323 in most recent round)

[2018-04-02 19:31:26.467] [jointLog] [info] Computed 71851 rich equivalence classes for further processing
[2018-04-02 19:31:26.467] [jointLog] [info] Counted 15420790 total reads in the equivalence classes 
[2018-04-02 19:31:26.478] [jointLog] [info] Mapping rate = 98.3699%

[2018-04-02 19:31:26.478] [jointLog] [info] finished quantifyLibrary()
[2018-04-02 19:31:26.482] [jointLog] [info] Starting optimizer
[2018-04-02 19:31:26.520] [jointLog] [info] Marked 0 weighted equivalence classes as degenerate
[2018-04-02 19:31:26.522] [jointLog] [info] iteration = 0 | max rel diff. = 129.717
[2018-04-02 19:31:26.720] [jointLog] [info] iteration = 100 | max rel diff. = 0.116571
[2018-04-02 19:31:26.904] [jointLog] [info] iteration = 200 | max rel diff. = 0.0602198
[2018-04-02 19:31:27.089] [jointLog] [info] iteration = 300 | max rel diff. = 0.0402559
[2018-04-02 19:31:27.275] [jointLog] [info] iteration = 400 | max rel diff. = 0.0304498
[2018-04-02 19:31:27.460] [jointLog] [info] iteration = 500 | max rel diff. = 0.0243028
[2018-04-02 19:31:27.647] [jointLog] [info] iteration = 600 | max rel diff. = 0.019484
[2018-04-02 19:31:27.834] [jointLog] [info] iteration = 700 | max rel diff. = 0.0156117
[2018-04-02 19:31:28.032] [jointLog] [info] iteration = 800 | max rel diff. = 0.014669
[2018-04-02 19:31:28.228] [jointLog] [info] iteration = 900 | max rel diff. = 0.0132709
[2018-04-02 19:31:28.423] [jointLog] [info] iteration = 1000 | max rel diff. = 0.0109701
[2018-04-02 19:31:28.609] [jointLog] [info] iteration = 1100 | max rel diff. = 0.0109702
[2018-04-02 19:31:28.796] [jointLog] [info] iteration = 1200 | max rel diff. = 0.0100585
[2018-04-02 19:31:28.983] [jointLog] [info] iteration = 1300 | max rel diff. = 0.0100585
[2018-04-02 19:31:29.028] [jointLog] [info] iteration = 1325 | max rel diff. = 0.00859317
[2018-04-02 19:31:29.035] [jointLog] [info] Finished optimizer
[2018-04-02 19:31:29.035] [jointLog] [info] writing output 

