{
    "salmon_version": "0.9.1",
    "samp_type": "none",
    "quant_errors": [],
    "num_libraries": 1,
    "library_types": [
        "U"
    ],
    "frag_dist_length": 1001,
    "seq_bias_correct": false,
    "gc_bias_correct": false,
    "num_bias_bins": 4096,
    "mapping_type": "mapping",
    "num_targets": 63557,
    "serialized_eq_classes": true,
    "eq_class_properties": [],
    "length_classes": [
        392,
        827,
        1452,
        2312,
        16473
    ],
    "index_seq_hash": "abbce3967267f5ef79f90ae26ca81f938832cc6e817c2cff7fd6ce0fbf58855a",
    "index_name_hash": "27f21fc58432b2226f208db85a93676548c6cb9109dd40c40d97439efbca2a67",
    "num_bootstraps": 0,
    "num_processed": 12133900,
    "num_mapped": 11981234,
    "percent_mapped": 98.74182249730095,
    "call": "quant",
    "start_time": "Mon Apr  2 19:34:16 2018",
    "end_time": "Mon Apr  2 19:34:56 2018"
}