{
    "salmon_version": "0.11.3",
    "samp_type": "none",
    "opt_type": "vb",
    "quant_errors": [],
    "num_libraries": 1,
    "library_types": [
        "U"
    ],
    "frag_dist_length": 1001,
    "seq_bias_correct": false,
    "gc_bias_correct": false,
    "num_bias_bins": 4096,
    "mapping_type": "mapping",
    "num_targets": 26303,
    "serialized_eq_classes": true,
    "eq_class_properties": [],
    "length_classes": [
        261,
        465,
        828,
        1398,
        14121
    ],
    "index_seq_hash": "4c18c66e038d138cb77cad048aa59806f2484f823b4eb49d32d5fcdba91be701",
    "index_name_hash": "e6d6e18468a6d9a53c3d4dbdcac1c074797a977307b095fd1a9b1a335003483d",
    "index_seq_hash512": "25cc2d7a3799cc892d10a9b97ada827c052d4b47d97c79d9c06c297e6b10d5f911c1bbab42efdbb0eec1c0d6a4f4982595a27e8aca89b06516692d04375fe7f2",
    "index_name_hash512": "b4e01fbacfd32d0f321d018cd2f704806463adc21a8723e930973b96c7b03c0831e6c40e994252494e8636b01d7d0de266a8fad1050ee055cca337f4a8fce3de",
    "num_bootstraps": 0,
    "num_processed": 11432304,
    "num_mapped": 8869581,
    "percent_mapped": 77.58349498053936,
    "call": "quant",
    "start_time": "Sat Dec  8 10:16:16 2018",
    "end_time": "Sat Dec  8 10:18:57 2018"
}