{
    "read_files": [
        "SRR3371320_1.cor.p.fq.gz"
    ],
    "expected_format": "U",
    "compatible_fragment_ratio": 1.0,
    "num_compatible_fragments": 13937031,
    "num_assigned_fragments": 13937031,
    "num_frags_with_concordant_consistent_mappings": 13981732,
    "num_frags_with_inconsistent_or_orphan_mappings": 0,
    "strand_mapping_bias": 0.4899455947231716,
    "MSF": 0,
    "OSF": 0,
    "ISF": 0,
    "MSR": 0,
    "OSR": 0,
    "ISR": 0,
    "SF": 6850288,
    "SR": 7131444,
    "MU": 0,
    "OU": 0,
    "IU": 0,
    "U": 0
}