{
    "salmon_version": "0.11.3",
    "threads": "4",
    "index": "1_arabidopsis_trinity_clusters.longest_orf.fasta.salmon_index",
    "libType": "IU",
    "dumpEq": [],
    "unmatedReads": "SRR3371331_1.cor.p.fq.gz",
    "output": "SRR33713311_arabidopsis_trinity_clusters.longest_orf_salmon_map",
    "auxDir": "aux_info"
}