{
    "read_files": [
        "SRR3371342_1.cor.p.fq.gz"
    ],
    "expected_format": "U",
    "compatible_fragment_ratio": 1.0,
    "num_compatible_fragments": 7161706,
    "num_assigned_fragments": 7161706,
    "num_frags_with_concordant_consistent_mappings": 7162645,
    "num_frags_with_inconsistent_or_orphan_mappings": 0,
    "strand_mapping_bias": 0.018759131577790048,
    "MSF": 0,
    "OSF": 0,
    "ISF": 0,
    "MSR": 0,
    "OSR": 0,
    "ISR": 0,
    "SF": 134365,
    "SR": 7028280,
    "MU": 0,
    "OU": 0,
    "IU": 0,
    "U": 0
}