{
    "salmon_version": "0.11.3",
    "samp_type": "none",
    "opt_type": "vb",
    "quant_errors": [],
    "num_libraries": 1,
    "library_types": [
        "U"
    ],
    "frag_dist_length": 1001,
    "seq_bias_correct": false,
    "gc_bias_correct": false,
    "num_bias_bins": 4096,
    "mapping_type": "mapping",
    "num_targets": 33915,
    "serialized_eq_classes": true,
    "eq_class_properties": [],
    "length_classes": [
        302,
        483,
        943,
        1777,
        16492
    ],
    "index_seq_hash": "c4d587bbd1cd99a45fa021c04735655891419a61fec00add0533334bf02cdffb",
    "index_name_hash": "1cee79abea6c31aad4e81e5c0d2a9f23a1ab80d14614e801036e3f479a588d50",
    "index_seq_hash512": "265022acdbb81e109541c32d9a818d6e280f44629e3ff97d3991bb4dc8be8a960ab2e8e672a084b0e3f5eab94b061e19fac18148872494d110f1fa6c1e633182",
    "index_name_hash512": "6d076a1afb63ff7e037bbfc4fc95489564f6f1480ce32fa0d6ae88fe5e5691801985273917d2c3ea4f73078fb7d736dd50d087cc7cb10de589f2d9a1ce589f92",
    "num_bootstraps": 0,
    "num_processed": 11432304,
    "num_mapped": 11004331,
    "percent_mapped": 96.25645889052635,
    "call": "quant",
    "start_time": "Sat Dec  8 17:55:07 2018",
    "end_time": "Sat Dec  8 17:56:31 2018"
}