{
    "salmon_version": "0.9.1",
    "threads": "4",
    "index": "/home/yangya/clingyun/data/paper1/arabidopsis_coolen_2016/arabidopsis_coolen_2016_Trinity2.6.6_raw._salmon_index",
    "libType": "IU",
    "dumpEq": [],
    "unmatedReads": "/home/yangya/clingyun/data/paper1/arabidopsis_coolen_2016/SRR3371309_1.cor.p.fq",
    "output": "/home/yangya/clingyun/data/paper1/arabidopsis_coolen_2016/SRR3371309_trinity2.6.6_salmon_map",
    "auxDir": "aux_info"
}